%YAML 1.1
%TAG !u! tag:unity3d.com,2011:
--- !u!1045 &1
EditorBuildSettings:
  m_ObjectHideFlags: 0
  serializedVersion: 2
  m_Scenes:
  - enabled: 1
    path: Assets/Scenes/mainMenu.unity
    guid: 3b67d3c59c34a5d4eb11fec0809737ac
  - enabled: 1
    path: Assets/Scenes/scene1.unity
    guid: b4202e067aed8bb4eba96606e4cb8560
  - enabled: 1
    path: Assets/Scenes/gameOverMenu.unity
    guid: 3ea25bd084844be47a056cc53771727b
